2018-01-09 15:54:31,885   GET     301   17460 ms  /
2018-01-09 15:54:31,910   GET     301    6212 ms  /
2018-01-09 15:54:32,061   GET     200     141 ms  /flow/index.html
2018-01-09 15:54:32,270   GET     200     117 ms  /flow/css/flow.css
2018-01-09 15:54:32,271   GET     200     113 ms  /flow/css/scala-editor.css
2018-01-09 15:54:32,280   GET     200     119 ms  /flow/custom/custom.css
2018-01-09 15:54:32,281   GET     200     129 ms  /flow/css/flow-lib.css
2018-01-09 15:54:32,296   GET     200     121 ms  /flow/js/flow.js
2018-01-09 15:54:32,322   GET     200       3 ms  /flow/img/h2o.png
2018-01-09 15:54:32,327   GET     200     152 ms  /flow/js/flow-lib.js
2018-01-09 15:54:32,359   GET     200      23 ms  /flow/fonts/fontawesome-webfont.woff
2018-01-09 15:54:32,789   GET     200       3 ms  /flow/index.html
2018-01-09 15:54:33,167   GET     200     364 ms  /3/Metadata/endpoints
2018-01-09 15:54:33,506   GET     200       5 ms  /flow/help/catalog.json
2018-01-09 15:54:33,535   GET     200      12 ms  /flow/img/h2o-flow.png
2018-01-09 15:54:33,543   GET     200      50 ms  /3/NodePersistentStorage/categories/environment/names/clips/exists
2018-01-09 15:54:33,543   GET     200      59 ms  /3/NodePersistentStorage/notebook
2018-01-09 15:54:33,543   POST    200      33 ms  /3/scalaint
2018-01-09 15:54:33,550   GET     200      52 ms  /3/About
2018-01-09 15:54:33,678   GET     200     175 ms  /3/ModelBuilders
2018-01-09 15:54:34,785   GET     200       3 ms  /favicon.ico
2018-01-09 15:54:34,790   GET     200       3 ms  /favicon.ico
2018-01-09 15:55:50,078   GET     200      45 ms  /3/Frames
